<svg width="84" height="84" viewBox="0 0 84 84" fill="none" xmlns="http://www.w3.org/2000/svg">
<rect width="84" height="84" rx="20" fill="url(#paint0_linear_28_87)"/>
<mask id="mask0_28_87" style="mask-type:alpha" maskUnits="userSpaceOnUse" x="17" y="17" width="50" height="50">
<rect x="17" y="17" width="50" height="50" fill="#D9D9D9"/>
</mask>
<g mask="url(#mask0_28_87)">
<path d="M31.5 55C28.0278 55 25.0764 53.7847 22.6458 51.3542C20.2153 48.9236 19 45.9722 19 42.5C19 39.0278 20.2153 36.0764 22.6458 33.6458C25.0764 31.2153 28.0278 30 31.5 30H52.3333C55.8056 30 58.7569 31.2153 61.1875 33.6458C63.6181 36.0764 64.8333 39.0278 64.8333 42.5C64.8333 45.9722 63.6181 48.9236 61.1875 51.3542C58.7569 53.7847 55.8056 55 52.3333 55H31.5ZM52.3333 50.8333C54.625 50.8333 56.5868 50.0174 58.2188 48.3854C59.8507 46.7535 60.6667 44.7917 60.6667 42.5C60.6667 40.2083 59.8507 38.2465 58.2188 36.6146C56.5868 34.9826 54.625 34.1667 52.3333 34.1667H31.5C29.2083 34.1667 27.2465 34.9826 25.6146 36.6146C23.9826 38.2465 23.1667 40.2083 23.1667 42.5C23.1667 44.7917 23.9826 46.7535 25.6146 48.3854C27.2465 50.0174 29.2083 50.8333 31.5 50.8333H52.3333ZM52.3333 48.75C54.0694 48.75 55.5451 48.1424 56.7604 46.9271C57.9757 45.7118 58.5833 44.2361 58.5833 42.5C58.5833 40.7639 57.9757 39.2882 56.7604 38.0729C55.5451 36.8576 54.0694 36.25 52.3333 36.25C50.5972 36.25 49.1215 36.8576 47.9062 38.0729C46.691 39.2882 46.0833 40.7639 46.0833 42.5C46.0833 44.2361 46.691 45.7118 47.9062 46.9271C49.1215 48.1424 50.5972 48.75 52.3333 48.75Z" fill="#1C1B1F"/>
</g>
<defs>
<linearGradient id="paint0_linear_28_87" x1="-4.05797" y1="-2.82353" x2="73.3038" y2="102.617" gradientUnits="userSpaceOnUse">
<stop stop-color="#FFD874"/>
<stop offset="1" stop-color="#F5B000"/>
</linearGradient>
</defs>
</svg>
