<svg width="84" height="84" viewBox="0 0 84 84" fill="none" xmlns="http://www.w3.org/2000/svg">
<rect width="84" height="84" rx="20" fill="url(#paint0_linear_28_113)"/>
<mask id="mask0_28_113" style="mask-type:alpha" maskUnits="userSpaceOnUse" x="17" y="17" width="50" height="50">
<rect x="17" y="17" width="50" height="50" fill="#D9D9D9"/>
</mask>
<g mask="url(#mask0_28_113)">
<path d="M40 57.9V54C38.9 54 37.9587 53.6087 37.176 52.826C36.392 52.042 36 51.1 36 50V48L26.4 38.4C26.3 39 26.208 39.6 26.124 40.2C26.0413 40.8 26 41.4 26 42C26 46.0333 27.3253 49.5667 29.976 52.6C32.6253 55.6333 35.9667 57.4 40 57.9ZM53.8 52.8C55.1667 51.3 56.208 49.6247 56.924 47.774C57.6413 45.9247 58 44 58 42C58 38.7333 57.092 35.75 55.276 33.05C53.4587 30.35 51.0333 28.4 48 27.2V28C48 29.1 47.6087 30.0413 46.826 30.824C46.042 31.608 45.1 32 44 32H40V36C40 36.5667 39.8087 37.0413 39.426 37.424C39.042 37.808 38.5667 38 38 38H34V42H46C46.5667 42 47.042 42.1913 47.426 42.574C47.8087 42.958 48 43.4333 48 44V50H50C50.8667 50 51.65 50.258 52.35 50.774C53.05 51.2913 53.5333 51.9667 53.8 52.8ZM42 62C39.2333 62 36.6333 61.4747 34.2 60.424C31.7667 59.3747 29.65 57.95 27.85 56.15C26.05 54.35 24.6253 52.2333 23.576 49.8C22.5253 47.3667 22 44.7667 22 42C22 39.2333 22.5253 36.6333 23.576 34.2C24.6253 31.7667 26.05 29.65 27.85 27.85C29.65 26.05 31.7667 24.6247 34.2 23.574C36.6333 22.5247 39.2333 22 42 22C44.7667 22 47.3667 22.5247 49.8 23.574C52.2333 24.6247 54.35 26.05 56.15 27.85C57.95 29.65 59.3747 31.7667 60.424 34.2C61.4747 36.6333 62 39.2333 62 42C62 44.7667 61.4747 47.3667 60.424 49.8C59.3747 52.2333 57.95 54.35 56.15 56.15C54.35 57.95 52.2333 59.3747 49.8 60.424C47.3667 61.4747 44.7667 62 42 62Z" fill="white"/>
</g>
<defs>
<linearGradient id="paint0_linear_28_113" x1="-4.05797" y1="-2.82353" x2="73.3038" y2="102.617" gradientUnits="userSpaceOnUse">
<stop stop-color="#4658C1"/>
<stop offset="1" stop-color="#401A92"/>
</linearGradient>
</defs>
</svg>
