<svg width="1273" height="417" viewBox="0 0 1273 417" fill="none" xmlns="http://www.w3.org/2000/svg">
<path d="M89 106.908C97.0855 173.897 145.847 311.359 276.209 325.296C439.162 342.717 574.749 221.39 595.274 197.125C615.799 172.86 730.239 72.065 882.619 106.908C1035 141.75 1160.63 107.529 1188 31" stroke="#F5B000" stroke-width="179"/>
</svg>
