[
	{
		"id": 1,
		"name": "Todd Bengough",
		"email": "tbengough0@bloglovin.com",
		"phone": "501-282-8851",
		"category": 0
	},
	{
		"id": 2,
		"name": "Lilli Gallear",
		"email": "lgallear1@theatlantic.com",
		"phone": "568-246-5861",
		"category": 0
	},
	{
		"id": 3,
		"name": "Kylila McFadzean",
		"email": "kmcfadzean2@ustream.tv",
		"phone": "673-795-1903",
		"category": 0
	},
	{
		"id": 4,
		"name": "Dario Ivins",
		"email": "divins3@statcounter.com",
		"phone": "133-407-2883",
		"category": 1
	},
	{
		"id": 5,
		"name": "Enid Oyley",
		"email": "eoyley4@wired.com",
		"phone": "857-621-0977",
		"category": 0
	},
	{
		"id": 6,
		"name": "Barny Osichev",
		"email": "bosichev5@yahoo.co.jp",
		"phone": "631-329-7352",
		"category": 0
	},
	{
		"id": 7,
		"name": "Lorena Albutt",
		"email": "lalbutt6@drupal.org",
		"phone": "879-327-3678",
		"category": 0
	},
	{
		"id": 8,
		"name": "Julietta Laverenz",
		"email": "jlaverenz7@ifeng.com",
		"phone": "430-174-9413",
		"category": 0
	},
	{
		"id": 9,
		"name": "Lilia Querrard",
		"email": "lquerrard8@nsw.gov.au",
		"phone": "138-565-2433",
		"category": 0
	},
	{
		"id": 10,
		"name": "Moishe Naire",
		"email": "mnaire9@google.com",
		"phone": "134-833-0482",
		"category": 1
	}
]
