[
	{
		"id": 1,
		"name": "Todd Bengough"
	},
	{
		"id": 2,
		"name": "Lilli Gallear"
	},
	{
		"id": 3,
		"name": "Kylila McFadzean"
	},
	{
		"id": 4,
		"name": "Dario Ivins"
	},
	{
		"id": 5,
		"name": "Enid Oyley"
	},
	{
		"id": 6,
		"name": "Barny Osichev"
	},
	{
		"id": 7,
		"name": "Lorena Albutt"
	},
	{
		"id": 8,
		"name": "Julietta Laverenz"
	},
	{
		"id": 9,
		"name": "Lilia Querrard"
	},
	{
		"id": 10,
		"name": "Moishe Naire"
	}
]