<?xml version="1.0" encoding="UTF-8" standalone="no"?>
<svg
   width="1744.4418"
   height="1447.1125"
   viewBox="0 0 1744.4418 1447.1126"
   version="1.1"
   xml:space="preserve"
   style="clip-rule:evenodd;fill-rule:evenodd;stroke-linejoin:round;stroke-miterlimit:2"
   id="svg33880"
   sodipodi:docname="5231.svg"
   inkscape:version="1.1.2 (0a00cf5339, 2022-02-04)"
   xmlns:inkscape="http://www.inkscape.org/namespaces/inkscape"
   xmlns:sodipodi="http://sodipodi.sourceforge.net/DTD/sodipodi-0.dtd"
   xmlns="http://www.w3.org/2000/svg"
   xmlns:svg="http://www.w3.org/2000/svg"><defs
   id="defs33884" /><sodipodi:namedview
   id="namedview33882"
   pagecolor="#ffffff"
   bordercolor="#666666"
   borderopacity="1.0"
   inkscape:pageshadow="2"
   inkscape:pageopacity="0.0"
   inkscape:pagecheckerboard="0"
   showgrid="false"
   inkscape:zoom="0.18985714"
   inkscape:cx="1351.0158"
   inkscape:cy="1190.3687"
   inkscape:window-width="1920"
   inkscape:window-height="1011"
   inkscape:window-x="0"
   inkscape:window-y="32"
   inkscape:window-maximized="1"
   inkscape:current-layer="g33878" />
    <g
   id="g33878"
   transform="translate(-862.78706,-343.44808)">
        
        <g
   transform="matrix(1.0068219,0,0,1.0068219,-8.0011205,66.778068)"
   id="g33876">
            <path
   d="m 1855.34,959.022 -11.77,-17.03 -20.71,0.046 c -2.35,0.005 -3.69,-2.695 -2.26,-4.571 l 12.55,-16.462 -6.44,-19.677 c -0.73,-2.241 1.42,-4.35 3.65,-3.57 l 19.53,6.856 16.73,-12.207 c 1.9,-1.39 4.57,0.007 4.52,2.364 l -0.48,20.7 16.77,12.132 c 1.91,1.382 1.41,4.355 -0.85,5.031 l -19.83,5.937 -6.36,19.706 c -0.72,2.244 -3.7,2.685 -5.05,0.745 z"
   style="fill:#f47458;fill-rule:nonzero"
   id="path33714" />
            <path
   d="m 2401.73,583.753 10.92,-25.277 -14.64,-23.323 c -1.66,-2.656 0.44,-6.071 3.56,-5.778 l 27.41,2.57 17.66,-21.125 c 2.01,-2.406 5.91,-1.462 6.6,1.598 l 6.02,26.866 25.55,10.266 c 2.91,1.169 3.22,5.168 0.52,6.766 l -23.69,14.034 -1.87,27.47 c -0.21,3.128 -3.92,4.655 -6.27,2.583 l -20.67,-18.192 -26.7,6.711 c -3.04,0.765 -5.64,-2.29 -4.4,-5.169 z"
   style="fill:#f7cc7f;fill-rule:nonzero"
   id="path33716" />
            <path
   d="m 976.009,1278.49 -14.006,-26.8 -30.015,-3.65 c -3.419,-0.42 -4.877,-4.58 -2.467,-7.04 l 21.158,-21.6 -5.801,-29.67 c -0.66,-3.38 2.842,-6.05 5.926,-4.52 l 27.082,13.44 26.434,-14.68 c 3.01,-1.68 6.63,0.83 6.13,4.24 l -4.42,29.91 22.13,20.6 c 2.52,2.34 1.26,6.56 -2.14,7.14 l -29.811,5.04 -12.75,27.41 c -1.452,3.13 -5.855,3.23 -7.45,0.18 z"
   style="fill:#9bc1f9;fill-rule:nonzero"
   id="path33718" />
            <path
   d="m 2576.53,634.621 0.35,14.644 -23.5,3.167 -2.13,21.475 -17.2,5.245 2.66,8.706 23,-7.015 2.02,-20.351 24.45,-3.295 -0.53,-22.036 z"
   style="fill:#466eb6;fill-rule:nonzero"
   id="path33720" />
            <path
   d="m 1284.7,458.385 4.7,-77.156 c 0.39,-6.384 6.05,-11.141 12.4,-10.429 l 7.68,0.861 c 6.35,0.712 10.81,6.587 9.79,12.891 l -12.33,76.327 z m -9.47,26.324 c 1.28,-9.607 10.47,-16.587 20.07,-15.249 9.99,1.394 15.75,9.462 14.8,19.631 -1.14,10.147 -8.82,16.993 -19.36,15.812 -10.69,-1.199 -16.89,-9.839 -15.51,-20.194 z"
   style="fill:#f48c7f;fill-rule:nonzero"
   id="path33722" />
            <path
   d="m 1226.3,873.039 c 0.52,19.139 5.46,60.208 48.85,66.993 26.94,4.213 61.45,-19.986 59.22,-37.753 -2.22,-17.766 -7.15,-63.045 -35.28,-73.408 -23.51,-8.66 -73.96,1.467 -72.79,44.168 z"
   style="fill:#184655;fill-rule:nonzero"
   id="path33724" />
            <path
   d="m 1588.4,1491.63 c 6.14,25.77 10.97,62.95 12.76,65.03 0.86,0.99 2.65,7.49 3.52,8.55 28.02,10.19 52.65,-0.33 72.17,-11.9 -15.3,-2.72 -35.91,-5.54 -38.78,-7.56 -10.65,-7.52 -8.1,-34.28 -10.02,-58.3 -7.58,1.34 -25.97,-3.45 -39.65,4.18 z"
   style="fill:#f7a491;fill-rule:nonzero"
   id="path33726" />
            <path
   d="m 1600.58,1555.2 c 0.18,10.18 6.73,31.9 8.75,31.88 2.42,-0.04 86.65,-7.33 94.59,-20.25 4.77,-7.77 -8.2,-9.8 -27.07,-13.52 -19.52,11.57 -73.93,8.26 -76.27,1.89 z"
   style="fill:#466eb6;fill-rule:nonzero"
   id="path33728" />
            <path
   d="m 1188.43,1549.14 c -19.49,15.27 -39.19,27.46 -41.67,28.64 -1.19,0.56 -7.93,0.54 -9.18,1.1 -17.33,24.26 -13.79,50.81 -7.87,72.72 6.71,-14.02 14.62,-33.59 17.67,-35.34 4.87,-2.78 22.41,-13.2 53.92,-26.01 -10.67,-11.58 -9.18,-25.89 -12.87,-41.11 z"
   style="fill:#f7a491;fill-rule:nonzero"
   id="path33730" />
            <path
   d="m 1232.8,1010.7 -60.2,109.51 c 0,0 -40.25,50.65 -60.97,76.65 4.46,7.3 8.78,14.78 12.63,22.47 20.62,-17.53 64.49,-54.73 80.14,-75.29 23.14,-30.37 65.01,-102.49 65.01,-102.49 z"
   style="fill:#f7a491;fill-rule:nonzero"
   id="path33732" />
            <path
   d="m 1392.86,1201.29 -64.39,94.98 c 0,0 -3.69,-6.36 19.36,2.07 23.06,8.43 171.76,36.2 180.56,46.7 6.23,7.44 52.35,153.3 61.23,172.03 13.38,5.42 32.83,-0.6 46.56,-2.57 0.88,-70.27 -36.33,-198.19 -46.26,-213.19 -22.19,-33.52 -127.83,-69.73 -175.39,-90.04 -7.72,-3.3 -13.7,-6.26 -17.41,-8.05 -2.75,-1.32 -4.26,-1.93 -4.26,-1.93 z"
   style="fill:#3c8f7c;fill-rule:nonzero"
   id="path33734" />
            <path
   d="m 1145.72,1578.03 c -9.85,-2.56 -29.94,-2.48 -30.46,-0.53 -0.62,2.34 -16.15,85.44 -5.83,96.55 6.21,6.68 11.63,-5.27 20.28,-22.45 -5.92,-21.91 9.24,-73.03 16.01,-73.57 z"
   style="fill:#466eb6;fill-rule:nonzero"
   id="path33736" />
            <path
   d="m 1375.96,1268.15 c 0.56,-7.14 15.81,-48.77 21.21,-64.98 0.18,-0.52 -3.82,-9.89 -8.13,-23.38 l -6.18,0.99 -91.54,4.15 c 0,0 -36.86,62.27 -32.57,90.87 5.99,39.94 63.73,181.89 54.95,188.58 -15.85,12.08 -93.48,57.06 -133.37,83.8 2.55,15.45 9.69,37.01 19.48,49.35 32.46,-11.29 172.75,-67.84 187.18,-111.23 12.74,-38.32 -11.98,-206.03 -11.03,-218.15 z"
   style="fill:#50bfa5;fill-rule:nonzero"
   id="path33738" />
            <path
   d="m 1374.49,918.194 c 0,0 -25.22,39.608 -40.08,41.036 l 52.58,48.65 c 0,0 35.81,-53.703 39.55,-62.916 0,0 -32.6,-29.034 -52.05,-26.77 z"
   style="fill:#f7cc7f;fill-rule:nonzero"
   id="path33740" />
            <path
   d="m 1392.89,1157.53 c -2.35,21.81 4.37,45.67 4.37,45.67 -21.14,4.54 -96.08,14.09 -114.41,-8.22 -0.66,-0.8 25.95,-47.73 22.29,-66.9 -5.41,-28.26 -28.88,-76.2 -30.83,-78.76 -3.26,-4.31 -15.26,17.99 -15.26,17.99 -14.06,0.07 -46.26,-32.61 -46.26,-32.61 0,0 33.3,-58.012 42.46,-63.467 9.16,-5.453 84.88,-13.695 84.93,-13.699 5.57,-0.402 20.79,12.807 24.98,16.979 47.85,47.747 34.96,116.167 27.73,183.017 z"
   style="fill:#fae0b2;fill-rule:nonzero"
   id="path33742" />
            <path
   d="m 1297.5,933.193 c 0,0 8.25,27.267 8.31,38.353 0.06,11.086 4.48,26.171 27.72,23.888 23.24,-2.284 4.18,-25.675 0.88,-36.204 -3.3,-10.528 -7.26,-43.766 -7.26,-43.766 z"
   style="fill:#f7a491;fill-rule:nonzero"
   id="path33744" />
            <path
   d="m 1329.36,932.118 c -1.3,-9.07 -2.21,-16.654 -2.21,-16.654 l -29.65,17.729 c 0,0 1.69,5.576 3.54,12.71 13.92,1.332 23.28,-4.736 28.32,-13.785 z"
   style="fill:#f47458;fill-rule:nonzero"
   id="path33746" />
            <path
   d="m 1273.32,850.884 c 0,0 -12.23,8.538 -15.36,24.627 -3.13,16.089 6.42,55.783 40.94,62.034 34.52,6.251 45.74,-27.122 36.26,-51.328 -9.47,-24.207 -27.75,-54.212 -61.84,-35.333 z"
   style="fill:#f7a491;fill-rule:nonzero"
   id="path33748" />
            <path
   d="m 1338.36,876.125 c 0.03,6.761 -3.13,12.258 -7.07,12.279 -3.94,0.02 -7.16,-5.444 -7.19,-12.205 -0.04,-6.761 3.13,-12.258 7.06,-12.278 3.94,-0.021 7.16,5.444 7.2,12.204 z"
   style="fill:#f7a491;fill-rule:nonzero"
   id="path33750" />
            <path
   d="m 1272.96,909.805 c 4.54,5.444 5.24,12.345 1.56,15.415 -3.68,3.069 -10.34,1.144 -14.88,-4.3 -4.55,-5.443 -5.24,-12.344 -1.56,-15.414 3.68,-3.069 10.34,-1.145 14.88,4.299 z"
   style="fill:#f7a491;fill-rule:nonzero"
   id="path33752" />
            <path
   d="m 1237.96,835.735 c 1.35,-18.542 14.47,-87.497 -27.71,-94.033 -42.18,-6.537 -51.19,39.542 -74.58,-22.484 -21.67,-57.461 -86.07,-35.215 -88.76,8.422 -6.11,-0.519 -12.37,0.37 -18.34,2.885 -20.64,8.699 -29.923,33.434 -20.73,55.248 1.46,3.468 0.63,6.906 2.78,9.775 -4.95,19.006 -1.54,40.732 13.13,62.802 40.08,60.28 80.27,-3.172 107.37,0.208 27.1,3.379 9.44,24.565 32.91,41.1 23.47,16.535 42.37,12.205 80.58,-32.9 l 9.43,-12.432 c 0,0 -17.44,-0.049 -16.08,-18.591 z"
   style="fill:#184655;fill-rule:nonzero"
   id="path33754" />
            <path
   d="m 2423.64,1360.92 c 21.14,-8.44 40.07,-19.92 42.31,-21.1 1.72,-0.9 8.89,-6.19 9.91,-6.93 18.64,11.09 25.45,20.52 40.14,35.34 -10.87,0.59 -15.48,-8.32 -19.64,-7.4 -5.02,1.12 -20.84,11.73 -45.58,30.87 -4.28,-13.84 -16.74,-20.82 -27.14,-30.78 z"
   style="fill:#f8a492;fill-rule:nonzero"
   id="path33756" />
            <path
   d="m 2124.39,1577.59 c 4.82,22.25 13.59,42.04 14.65,44.33 0.51,1.1 3.79,1.94 4.34,3.07 -14.03,16.53 -20.09,44.05 -37.15,56.06 1.22,-10.81 8.48,-31.12 8.26,-35.38 -0.27,-5.14 -8.1,-22.5 -22.86,-50.08 14.35,-1.91 21.22,-9.4 32.76,-18 z"
   style="fill:#f8a492;fill-rule:nonzero"
   id="path33758" />
            <path
   d="m 2133.27,1626.47 c 1.91,-4.81 8.23,-8.13 12.72,-5.29 4.53,2.87 10.55,6 15.05,9.12 5.05,3.5 5.41,7.44 5.28,8.33 -0.37,2.58 -60.12,72.45 -67.78,73.46 -7.65,1.01 6.5,-58.08 14.9,-64.15 7.47,-5.41 11.22,0.17 19.83,-21.47 z"
   style="fill:#3c8f7c;fill-rule:nonzero"
   id="path33760" />
            <path
   d="m 2474.09,1339.87 c -4.39,-2.74 -6.54,-9.56 -2.93,-13.47 3.63,-3.94 7.79,-9.3 11.66,-13.16 4.35,-4.35 8.29,-4 9.14,-3.71 2.47,0.82 60.52,72.11 60.15,79.83 -0.38,7.71 -55.98,-16.79 -60.45,-26.14 -3.98,-8.32 2.17,-11.01 -17.57,-23.35 z"
   style="fill:#3c8f7c;fill-rule:nonzero"
   id="path33762" />
            <path
   d="m 2147.26,1317.12 c 0,0 117.85,158.81 138.36,160.28 19.17,1.37 167.8,-81.51 167.8,-81.51 l -19.33,-42.8 -119.02,42.8 -82.88,-156.85 z"
   style="fill:#b75742;fill-rule:nonzero"
   id="path33764" />
            <path
   d="m 2215.1,1182.92 c 0,0 21.58,5.14 33.9,38.02 12.33,32.87 -8.28,60.19 -59.96,107.83 -50.31,46.38 -100,89.95 -100,89.95 l 40.79,167.95 -33.9,28.77 c 0,0 -78.58,-170.69 -80.86,-211.33 -0.87,-15.52 119.9,-195.5 119.9,-195.5 z"
   style="fill:#f47458;fill-rule:nonzero"
   id="path33766" />
            <path
   d="m 2123.92,977.292 -65.7,36.748 -52.06,25 c 0,0 -12.7,-43.204 -8.44,-64.383 0.61,-3.025 3.6,-6.609 4.68,-8.219 8.58,-12.874 -9.76,-32.876 -9.76,-32.876 0,0 -11.06,-3.144 -18.57,15.096 -7.51,18.239 6.36,25.976 6.36,25.976 0,0 -15.82,55.216 -9.2,95.456 3.48,21.08 56.18,5.6 98.18,-12.56 35.31,-15.27 61.3,-32.31 61.3,-32.31 z"
   style="fill:#f7a491;fill-rule:nonzero"
   id="path33768" />
            <path
   d="m 2138.7,970.991 c -1.39,-1.299 -3.67,-2.064 -7.4,-0.679 -8.14,3.024 -87.01,46.358 -87.01,46.358 0,0 7.08,37.9 25.57,49.54 l 39.74,-12.13 30.39,-76.823 c 0.85,-2.159 0.4,-4.68 -1.29,-6.266 z"
   style="fill:#3c8f7c;fill-rule:nonzero"
   id="path33770" />
            <path
   d="m 2320.28,808.977 c -29.94,-18.338 -67.27,-14.799 -89.49,9.842 -18.28,-6.874 -39.25,-6.341 -56.22,1.583 -33.47,15.634 -63.09,56.453 -37.87,86.088 -5.36,39.34 18.18,62.219 47.5,64.834 15.94,31.986 72.46,35.266 104.97,8.924 26.86,10.381 58.76,5.907 78.63,-13.472 4.76,-4.651 11.75,-12.101 13.34,-12.785 -1.92,0.967 74.85,-9.209 71.34,-76.876 -3.57,-69.05 -86.2,-95.553 -132.2,-68.138 z"
   style="fill:#fe875e;fill-rule:nonzero"
   id="path33772" />
            <path
   d="m 2184.25,965.753 48.72,2.686 -8.08,68.091 c 0,0 -23.52,65.52 -13.93,97.03 9.59,31.51 18.83,54.45 18.83,54.45 0,0 -27.74,31.85 -105.48,25.35 0,0 1.03,-56.51 0,-73.63 -1.02,-17.13 -20.89,-88.36 -18.15,-104.46 2.74,-16.09 19.87,-60.613 24.32,-64.379 4.45,-3.768 22.09,-5.651 22.09,-5.651 z"
   style="fill:#50bfa5;fill-rule:nonzero"
   id="path33774" />
            <path
   d="m 2186.54,928.363 c 0,0 -0.84,5.506 -1.64,12.575 -0.99,8.824 -1.92,20.082 -1.09,26.106 1.51,10.851 -8.7,39.446 -31.76,40.486 -23.05,1.05 -0.48,-31.586 1.26,-42.347 1.74,-10.762 1.73,-49.979 1.73,-49.979 z"
   style="fill:#f7a491;fill-rule:nonzero"
   id="path33776" />
            <path
   d="m 2155.23,931.802 c -0.01,-9.054 -0.19,-16.598 -0.19,-16.598 l 31.5,13.159 c 0,0 -0.87,5.692 -1.67,12.93 -13.43,3.265 -23.44,-1.351 -29.64,-9.491 z"
   style="fill:#f47458;fill-rule:nonzero"
   id="path33778" />
            <path
   d="m 2188.92,847.49 c 0,0 13.33,4.722 20.24,18.639 6.92,13.918 8.19,52.608 -21.79,67.019 -29.97,14.412 -48.64,-13.264 -46.08,-37.778 2.56,-24.514 11.71,-56.545 47.63,-47.88 z"
   style="fill:#f7a491;fill-rule:nonzero"
   id="path33780" />
            <path
   d="m 2135.83,886.951 c 1.67,6.189 5.95,10.416 9.55,9.442 3.61,-0.974 5.17,-6.78 3.5,-12.968 -1.67,-6.189 -5.95,-10.417 -9.55,-9.443 -3.61,0.974 -5.17,6.781 -3.5,12.969 z"
   style="fill:#f7a491;fill-rule:nonzero"
   id="path33782" />
            <path
   d="m 2205.55,900.197 c -2.78,6.119 -1.68,12.604 2.45,14.482 4.14,1.879 9.75,-1.56 12.53,-7.68 2.78,-6.12 1.68,-12.604 -2.46,-14.482 -4.14,-1.879 -9.74,1.559 -12.52,7.68 z"
   style="fill:#f7a491;fill-rule:nonzero"
   id="path33784" />
            <path
   d="m 1488.33,1212.58 -281.09,93.62 c -21.21,7.06 -44.24,-4.21 -51.43,-25.17 L 971.505,744.15 c -7.195,-20.96 4.165,-43.679 25.376,-50.743 l 281.089,-93.613 c 21.21,-7.064 44.24,4.202 51.43,25.163 44.76,130.373 180.28,525.153 184.31,536.883 7.19,20.96 -4.17,43.68 -25.38,50.74 z m 67.58,-14.65 c -4.58,-13.34 -191.12,-556.735 -199.27,-580.472 -12.48,-36.341 -52.4,-55.874 -89.17,-43.627 L 989.232,666.493 C 952.458,678.74 932.76,718.13 945.236,754.472 L 1144.5,1334.95 c 12.48,36.34 52.41,55.87 89.18,43.62 l 278.23,-92.66 c 36.78,-12.25 56.47,-51.63 44,-87.98 z"
   style="fill:#355389;fill-rule:nonzero"
   id="path33786" />
            <path
   d="m 1416.27,1275.54 c 4.28,12.49 -15.4,30.33 -43.96,39.84 -28.57,9.52 -55.2,7.1 -59.49,-5.39 -4.29,-12.49 15.39,-30.33 43.96,-39.85 28.56,-9.51 55.2,-7.1 59.49,5.4 z"
   style="fill:#184655;fill-rule:nonzero"
   id="path33788" />
            <path
   d="m 1408.66,1276.54 c 4.03,11.74 -12.27,27.77 -36.4,35.8 -24.13,8.04 -46.96,5.04 -50.99,-6.69 -4.03,-11.74 12.27,-27.77 36.4,-35.8 24.13,-8.04 46.96,-5.04 50.99,6.69 z"
   style="fill:#355389;fill-rule:nonzero"
   id="path33790" />
            <path
   d="m 2330.03,1318.35 c -5.16,22.79 -28.65,36.89 -52.49,31.5 l -315.87,-71.4 c -23.83,-5.39 -38.98,-28.23 -33.82,-51.02 L 2059.8,643.726 c 5.16,-22.788 28.66,-36.894 52.49,-31.506 l 315.87,71.408 c 23.83,5.389 38.98,28.231 33.82,51.02 z m 103.02,-663.829 -312.66,-70.683 c -41.32,-9.342 -82.06,15.115 -91,54.626 l -142.67,631.096 c -8.93,39.51 17.33,79.11 58.65,88.46 l 312.66,70.68 c 41.32,9.34 82.06,-15.12 91,-54.63 L 2491.7,742.979 c 8.93,-39.511 -17.33,-79.115 -58.65,-88.458 z"
   style="fill:#86b1f2;fill-rule:nonzero"
   id="path33792" />
            <path
   d="m 2174.48,1366.5 c -3.07,13.59 -31.58,18.71 -63.68,11.46 -32.1,-7.26 -55.63,-24.15 -52.56,-37.74 3.07,-13.58 31.58,-18.7 63.68,-11.45 32.1,7.26 55.63,24.15 52.56,37.73 z"
   style="fill:#466eb6;fill-rule:nonzero"
   id="path33794" />
            <path
   d="m 2166.8,1363.2 c -2.88,12.76 -27.21,18.13 -54.32,12 -27.12,-6.13 -46.77,-21.44 -43.88,-34.2 2.88,-12.76 27.2,-18.13 54.32,-12 27.12,6.13 46.77,21.44 43.88,34.2 z"
   style="fill:#86b1f2;fill-rule:nonzero"
   id="path33796" />
            <path
   d="m 2231.01,986.104 c 0,0 102.75,-24.954 125.65,-29.152 22.91,-4.199 102.39,-32.87 105.45,-34.083 3.05,-1.213 14.37,-42.099 18.86,-39.245 4.48,2.855 -6.88,20.614 -1.27,22.914 5.61,2.301 53.48,-19.133 53.81,-15.257 0.62,7.253 -28.79,14.231 -27.86,17.562 0.93,3.332 30.03,-10.098 33.59,-5.112 3.57,4.988 -28.73,10.167 -29.32,12.978 -0.59,2.812 31.02,-0.845 29.3,5.15 -0.93,3.255 -28.18,2.577 -27.03,6.361 1.15,3.783 21.9,7.509 20.46,11.157 -1.44,3.649 -16.96,-5.439 -27.69,-2.713 -10.72,2.725 -19.88,-0.789 -35.67,8.483 -15.79,9.272 -67.61,48.374 -104.46,56.453 -36.85,8.08 -118.23,26.15 -118.23,26.15 z"
   style="fill:#f7a491;fill-rule:nonzero"
   id="path33798" />
            <path
   d="m 2206.12,970.288 c 3.48,-1.661 14.15,-1.932 26.84,-1.838 4.67,0.035 11.25,0.072 16.24,-0.071 18.56,-0.531 36.19,0.342 36.19,0.342 0,0 9.33,45.099 1.57,56.609 0,0 -72.61,10.38 -70.86,15.42 z"
   style="fill:#50bfa5;fill-rule:nonzero"
   id="path33800" />
            <path
   d="m 1954.34,970.548 6.25,-7.91 c 0,0 3.89,-6.028 9.74,-6.617 5.85,-0.59 5.67,-7.928 -0.52,-6.882 -6.2,1.046 -10.1,2.522 -10.1,2.522 0,0 12.32,-6.328 12.54,-7.148 1.22,-4.61 -5.58,-6.401 -14.68,0.356 -9.1,6.757 -3.23,25.679 -3.23,25.679 z"
   style="fill:#f7a491;fill-rule:nonzero"
   id="path33802" />
            <path
   d="m 1115.35,1207.97 c -3.97,2.15 -6.74,4.13 -7.99,5.07 0.06,-0.13 0.12,-0.26 0.19,-0.39 1.31,-1.37 5.81,-6.18 5.84,-6.21 5.92,-4.51 2.81,-9.34 -2.72,-6.35 -5.52,3 -8.73,5.65 -8.73,5.65 0,0 9.59,-9.35 9.55,-10.81 -0.14,-4.77 -7.34,-4.26 -13.78,5.08 -5.63,8.17 2.68,22.46 5.09,25.85 2.38,4.91 6.73,7.19 6.73,7.19 l 1.47,-9.33 c 0,0 1.73,-6.96 7.07,-9.41 5.35,-2.44 2.81,-9.33 -2.72,-6.34 z"
   style="fill:#f7a491;fill-rule:nonzero"
   id="path33804" />
            <path
   d="m 1977.03,941.898 c 0,0 14.6,-11.729 16.92,-6.738 2.32,4.991 1.31,15.78 -0.87,15.018 -2.18,-0.762 -1.88,-8.452 -8.16,-6.447 -1.75,0.56 -10.43,3.301 -7.89,-1.833 z"
   style="fill:#f7a491;fill-rule:nonzero"
   id="path33806" />
            <path
   d="M 2232.81,541.709 1708.44,429.893 c -29.47,-6.284 -48.26,-35.265 -41.98,-64.732 l 10.06,-47.178 c 6.28,-29.466 35.27,-48.26 64.73,-41.977 l 524.38,111.816 c 29.46,6.284 48.26,35.265 41.97,64.732 l -10.06,47.178 c -6.28,29.467 -35.26,48.261 -64.73,41.977 z"
   style="fill:#96d9c9;fill-rule:nonzero"
   id="path33808" />
            <path
   d="m 2139.29,502.855 48.28,65.965 15.48,-48.809 z"
   style="fill:#96d9c9;fill-rule:nonzero"
   id="path33810" />
            <path
   d="m 1835.93,354.674 c -2.52,11.839 -15.36,19.134 -28.68,16.293 -13.32,-2.84 -22.07,-14.739 -19.55,-26.578 2.53,-11.838 15.37,-19.134 28.69,-16.293 13.32,2.84 22.07,14.739 19.54,26.578 z"
   style="fill:#ffffff;fill-rule:nonzero"
   id="path33812" />
            <path
   d="m 1811.89,370.556 -8.71,-1.857 c -16.74,-3.57 -33.21,7.108 -36.78,23.848 l -3.39,15.91 69.33,14.784 3.4,-15.909 c 3.57,-16.741 -7.11,-33.206 -23.85,-36.776 z"
   style="fill:#ffffff;fill-rule:nonzero"
   id="path33814" />
            <path
   d="m 2043.54,414 c -4.89,22.937 -42,34.465 -82.88,25.748 -40.88,-8.718 -70.05,-34.379 -65.16,-57.316 4.89,-22.938 41.99,-34.466 82.87,-25.748 40.88,8.717 70.06,34.378 65.17,57.316 z"
   style="fill:#ffffff;fill-rule:nonzero"
   id="path33816" />
            <path
   d="m 1976.01,431.815 -23.66,22.268 56.05,-13.259 -2.09,-36.163 z"
   style="fill:#ffffff;fill-rule:nonzero"
   id="path33818" />
            <path
   d="m 2147.97,428.54 8.48,-4.21 c 2.61,-1.299 3.94,-4.26 3.18,-7.077 -1.48,-5.518 -4.65,-14.609 -10.62,-21.728 -1.81,-2.147 -4.85,-2.781 -7.37,-1.55 l -14.82,7.24 c -1.87,0.914 -3.15,2.714 -3.4,4.782 -1.04,8.734 -2.16,32.836 13.05,53.182 17.33,23.187 35.14,34.923 47.64,40.595 2.03,0.922 4.4,0.672 6.19,-0.658 l 13.66,-10.155 c 2.39,-1.779 3.15,-5.023 1.8,-7.684 -2.72,-5.377 -8.56,-14.118 -19.66,-20.24 -2.27,-1.251 -5.08,-0.933 -7.01,0.787 l -5.11,4.539 c -2.09,1.854 -5.16,2.057 -7.48,0.504 -4.99,-3.344 -13.48,-11.443 -21.46,-30.491 -1.24,-2.973 0.04,-6.402 2.93,-7.836 z"
   style="fill:#ffffff;fill-rule:nonzero"
   id="path33820" />
            <path
   d="m 1632.6,963.125 -79.06,-48.048 c -8.03,-4.878 -10.58,-15.339 -5.71,-23.365 l 48.05,-79.065 c 4.88,-8.027 15.34,-10.58 23.37,-5.702 l 79.06,48.047 c 8.03,4.878 10.58,15.339 5.7,23.366 l -48.04,79.065 c -4.88,8.027 -15.34,10.579 -23.37,5.702 z"
   style="fill:#96d9c9;fill-rule:nonzero"
   id="path33822" />
            <path
   d="m 1674.25,898.478 c 2.93,-2.989 1.97,-8.714 -2.36,-12.538 -18.93,-16.751 -40.63,-30.107 -64.12,-39.473 -5.37,-2.144 -10.9,-0.35 -12.23,3.709 -10.96,32.386 -7.18,20.227 -11.92,39.046 -1.06,4.399 1.36,8.86 5.52,10.52 4.42,1.748 9.58,-0.104 11.65,-4.409 1.12,-2.376 2.23,-4.753 3.35,-7.129 1.26,-2.732 4.82,-3.777 7.88,-2.214 8.05,4.106 15.8,8.796 23.17,14.032 2.8,1.992 3.53,5.606 1.71,7.962 -1.58,2.066 -3.16,4.133 -4.73,6.199 -2.84,3.793 -2.05,9.15 1.59,12.207 3.44,2.876 8.52,2.984 11.88,0.071 3.47,-3.066 22.57,-21.697 28.61,-27.983 z"
   style="fill:#ffffff;fill-rule:nonzero"
   id="path33824" />
            <path
   d="m 1613.04,859.07 c 1.03,0.625 1.82,1.49 2.34,2.479 l 2.66,-4.368 -5.63,-3.418 -2.65,4.367 c 1.12,0.012 2.25,0.316 3.28,0.94 z"
   style="fill:#96d9c9;fill-rule:nonzero"
   id="path33826" />
            <path
   d="m 1604.16,861.237 c 0.62,-1.027 1.49,-1.818 2.47,-2.345 l -4.36,-2.654 -3.42,5.626 4.37,2.654 c 0.01,-1.121 0.31,-2.253 0.94,-3.281 z"
   style="fill:#96d9c9;fill-rule:nonzero"
   id="path33828" />
            <path
   d="m 1606.32,870.119 c -1.02,-0.624 -1.81,-1.489 -2.34,-2.478 l -2.66,4.368 5.63,3.418 2.65,-4.367 c -1.12,-0.012 -2.25,-0.317 -3.28,-0.941 z"
   style="fill:#96d9c9;fill-rule:nonzero"
   id="path33830" />
            <path
   d="m 1616.15,864.672 c -0.02,1.12 -0.32,2.253 -0.94,3.28 -0.63,1.027 -1.49,1.819 -2.48,2.346 l 4.36,2.654 3.42,-5.626 z"
   style="fill:#96d9c9;fill-rule:nonzero"
   id="path33832" />
            <path
   d="m 1613.05,866.643 c -1.13,1.861 -3.56,2.454 -5.42,1.322 -1.86,-1.131 -2.45,-3.557 -1.32,-5.419 1.13,-1.861 3.56,-2.453 5.42,-1.321 1.86,1.13 2.45,3.556 1.32,5.418 z"
   style="fill:#96d9c9;fill-rule:nonzero"
   id="path33834" />
            <path
   d="m 1662.94,897.563 c -2.42,3.981 -7.61,5.248 -11.6,2.828 -3.98,-2.42 -5.24,-7.61 -2.82,-11.592 2.42,-3.982 7.61,-5.248 11.59,-2.828 3.98,2.42 5.25,7.61 2.83,11.592 z"
   style="fill:#96d9c9;fill-rule:nonzero"
   id="path33836" />
            <path
   d="m 1707.08,596.994 c 0,0 2.87,-16.392 19.89,-24.288 15.17,-7.04 31.54,0.835 38.41,15.656 7.96,17.156 3.12,44.069 -25.71,78.881 -45.2,-0.472 -68.87,-14.157 -76.83,-31.312 -6.87,-14.822 -2.32,-32.401 12.86,-39.441 17.02,-7.896 31.38,0.504 31.38,0.504 z"
   style="fill:#f48c7f;fill-rule:nonzero"
   id="path33838" />
            <path
   d="m 1158.76,523.429 -100.45,47.867 c -11.85,5.647 -26.04,0.618 -31.68,-11.233 l -26.959,-56.568 c -5.647,-11.85 -0.618,-26.035 11.229,-31.681 l 100.46,-47.868 c 11.85,-5.646 26.04,-0.617 31.68,11.233 l 26.96,56.569 c 5.64,11.85 0.61,26.034 -11.24,31.681 z"
   style="fill:#fae0b2;fill-rule:nonzero"
   id="path33840" />
            <path
   d="m 1017.3,529.2 -21.509,64.106 47.789,-35.337 z"
   style="fill:#fae0b2;fill-rule:nonzero"
   id="path33842" />
            <path
   d="m 1052.77,504.414 12.71,-6.457 c 0,0 10.29,-19.911 8.71,-24.415 -1.57,-4.504 -8.6,-12.241 -6.65,-14.591 1.96,-2.349 6.83,-5.823 12.92,-1.805 4.43,2.916 9.67,18.859 11.66,19.128 1.25,0.168 8.66,-3.337 14.03,-5.985 3.53,-1.741 7.73,-1.374 10.91,0.948 l 0.01,0.007 c 2.15,1.57 2.91,4.43 1.82,6.858 l -1.7,3.779 3.7,1.897 c 2.76,1.412 3.86,4.785 2.46,7.55 l -1.42,2.819 2.4,1.01 c 3.1,1.3 4.37,4.998 2.74,7.93 l -1.32,2.381 0.57,0.409 c 2.37,1.7 3.06,4.933 1.57,7.447 l -1.37,2.313 -33.85,17.191 c -3.17,1.611 -6.64,2.556 -10.19,2.779 l -12.9,4.078 c -1.39,0.438 -2.89,-0.205 -3.53,-1.511 l -14.59,-29.851 c -0.71,-1.442 -0.12,-3.182 1.31,-3.909 z"
   style="fill:#ffffff;fill-rule:nonzero"
   id="path33844" />
            <path
   d="m 1883.88,661.545 c 75.93,-17.245 146.07,6.589 156.66,53.233 5.3,23.323 -5.29,47.932 -26.7,68.866 l 46.43,61.773 -76.99,-38.733 c -17.55,10.319 -38.26,18.602 -61.04,23.776 -75.93,17.244 -146.08,-6.589 -156.67,-53.233 -10.59,-46.645 42.38,-98.437 118.31,-115.682 z"
   style="fill:#fae0b2;fill-rule:nonzero"
   id="path33846" />
            <path
   d="m 1957.01,742.53 c -1.1,27.117 -23.96,48.21 -51.07,47.113 -27.12,-1.098 -48.21,-23.969 -47.12,-51.086 1.1,-27.116 23.96,-48.209 51.07,-47.112 27.12,1.097 48.21,23.969 47.12,51.085 z"
   style="fill:#f7cc7f;fill-rule:nonzero"
   id="path33848" />
            <path
   d="m 1881.35,747.26 c -0.58,14.498 10.7,26.726 25.19,27.313 14.5,0.587 26.72,-10.691 27.31,-25.189 z"
   style="fill:#efefef;fill-rule:nonzero"
   id="path33850" />
            <path
   d="m 928.673,878.797 -25.052,4.998 3.109,23.604 -24.461,6.013 0.189,22.924 -17.57,7.493 3.793,8.895 23.5,-10.021 -0.18,-21.725 25.448,-6.255 -3.059,-23.215 22.703,-4.529 z"
   style="fill:#f48c7f;fill-rule:nonzero"
   id="path33852" />
            <path
   d="m 2597.51,1072.95 -6.99,-24.57 -23.28,4.99 -7.95,-23.9 -22.84,2.03 -8.88,-16.92 -8.56,4.5 11.87,22.62 21.64,-1.92 8.28,24.86 22.9,-4.91 6.33,22.27 z"
   style="fill:#f7cc7f;fill-rule:nonzero"
   id="path33854" />
            <path
   d="m 932.821,616.691 -14.004,4.298 -9.404,-21.768 -21.25,3.758 -9.701,-15.14 -7.664,4.911 12.974,20.249 20.139,-3.561 9.783,22.645 21.072,-6.467 z"
   style="fill:#50bfa5;fill-rule:nonzero"
   id="path33856" />
            <path
   d="m 1451.94,704.724 c -4.89,-4.031 -16.3,-7.34 -21.98,-7.851 -5.68,-0.512 -30.49,-0.495 -33.71,5.47 -3.21,5.965 22.84,22.865 24.22,29.888 1.39,7.023 -15.08,116.077 -19.83,137.733 -2.35,10.681 -11.35,30.798 -19.88,48.448 12.26,1.96 27.24,11.988 36.65,19.143 12.06,-26.38 24.4,-56.035 25.94,-69.975 3.1,-28.137 13.48,-158.826 8.59,-162.856 z"
   style="fill:#f7a491;fill-rule:nonzero"
   id="path33858" />
            <path
   d="m 1471.36,550.632 c 14.41,-10.479 44.09,-23.316 50.48,-26.015 3.29,6.062 6.29,22.032 5.41,28.611 -7.04,-0.53 -38.43,0.183 -55.89,-2.596 z m 52.52,-34.037 c -8.45,-0.709 -52.67,33.009 -52.67,33.009 l -1.97,2.644 c 0,0 59.69,10.086 62.49,8.211 7.57,-5.061 -0.9,-43.28 -7.85,-43.864 z"
   style="fill:#466eb6;fill-rule:nonzero"
   id="path33860" />
            <path
   d="m 1419.25,499.07 c -1.11,-6.468 15.41,-20.249 20.84,-21.984 1.26,-0.162 2.35,-0.281 3.19,-0.042 1,0.288 4.64,2.16 9.13,14.175 4.91,13.135 10.04,43.523 9.97,55.654 -19,-15.88 -41.89,-42.233 -43.13,-47.803 z m 40.06,-10.427 c -7.65,-20.469 -15.13,-19.513 -20.42,-18.824 -5.3,0.69 -29.12,17.554 -26.89,30.521 2.23,12.966 49.87,50.829 49.87,50.829 l 3.16,-3.652 c 0,0 1.92,-38.406 -5.72,-58.874 z"
   style="fill:#466eb6;fill-rule:nonzero"
   id="path33862" />
            <path
   d="m 1462.27,559.177 2.59,0.741 c 2.58,0.734 5.26,-0.755 5.99,-3.327 l 2.18,-7.634 c 0.74,-2.572 -0.75,-5.252 -3.33,-5.986 l -2.59,-0.742 c -2.57,-0.734 -5.25,0.756 -5.99,3.328 l -2.18,7.633 c -0.73,2.572 0.76,5.252 3.33,5.987 z"
   style="fill:#466eb6;fill-rule:nonzero"
   id="path33864" />
            <path
   d="m 1510.71,726.235 -164.41,-46.95 c -8.89,-2.537 -14.28,-11.535 -12.33,-20.568 l 29.09,-134.528 214.11,61.142 -48.25,134.985 c -2.02,5.645 -10.04,8.252 -18.21,5.919 z"
   style="fill:#f47458;fill-rule:nonzero"
   id="path33866" />
            <path
   d="m 1577.79,616.672 -232.57,-65.931 1.8,-15.649 c 1.07,-9.387 10.33,-15.555 19.41,-12.935 l 210.17,60.639 c 7.47,2.156 12.01,8.433 9.82,13.586 z"
   style="fill:#fae0b2;fill-rule:nonzero"
   id="path33868" />
            <path
   d="m 1461.2,583.698 -4.43,-1.263 9.05,-31.68 4.42,1.264 z"
   style="fill:#466eb6;fill-rule:nonzero"
   id="path33870" />
            <path
   d="m 1432.82,704.231 -5.53,-1.579 34,-119.085 5.54,1.579 z"
   style="fill:#466eb6;fill-rule:nonzero"
   id="path33872" />
            <path
   d="m 1409.57,704.54 0.59,-6.995 c -5.65,-1.597 -12.16,-3.953 -15.5,-5.36 l -0.91,-5.341 c -2.95,-7.321 -6.23,-2.098 -7.19,-0.428 0,0 -0.24,9.39 0.81,10.487 0,0 11.09,11.706 15.82,16.134 2.34,2.192 9.82,8.264 9.82,8.264 l 5.95,-8.244 z"
   style="fill:#f7a491;fill-rule:nonzero"
   id="path33874" />
        </g>
    </g>
</svg>
